vhdl work "util_pkg.vhd"
vhdl work "tumbl/mbl_pkg.vhd"
vhdl work "lx_rocon_pkg.vhd"
vhdl work "xilinx_dualport_bram.vhd"
vhdl work "dff3.vhd"
vhdl work "tumbl/mem.vhd"
vhdl work "tumbl/fetch.vhd"
vhdl work "tumbl/exeq.vhd"
vhdl work "tumbl/decode.vhd"
vhdl work "tumbl/core_ctrl.vhd"
vhdl work "lx-fncapprox/lx_fncapprox_pkg.vhd"
vhdl work "lx-fncapprox/lx_fncapprox_dsp48.vhd"
vhdl work "lx-fncapprox/lx_fncapprox.vhd"
vhdl work "lx-fncapprox/rom_table.vhd"
vhdl work "qcounter.vhd"
vhdl work "lx-rocon_tumbl/lx_rocon_imem.vhd"
vhdl work "lx-rocon_tumbl/lx_rocon_gprf_abd.vhd"
vhdl work "lx-rocon_tumbl/lx_rocon_dmem.vhd"
vhdl work "irc_proc_inc.vhd"
vhdl work "crc.vhd"
vhdl work "cnt_div.vhd"
vhdl work "measurement_register.vhd"
vhdl work "lxmaster_transmitter.vhd"
vhdl work "lxmaster_receiver.vhd"
vhdl work "lx_crosdom_ser_fifo.vhd"
vhdl work "lx-rocon_tumbl/lx_rocon_tumbl.vhd"
vhdl work "irc_reader.vhd"
vhdl work "irc_proc_main.vhd"
vhdl work "dff2.vhd"
vhdl work "bus_tumbl.vhd"
vhdl work "bus_measurement.vhd"
vhdl work "bus_lxmaster.vhd"
vhdl work "bus_irc.vhd"
vhdl work "lx_rocon_top.vhd"
